userID,sampleID,geneID,mutation
mitox,HCT116-21-3-c1,AARS2,chr6 44268135 C|T: MODIFIER: 3_prime_UTR_variant
mitox,HCT116-21-3-c1,ABCB8,chr7 150742564 G|T: MODIFIER: 3_prime_UTR_variant
mitox,HCT116-21-3-c1,ACP6,chr1 147142287 A|G: MODIFIER: 5_prime_UTR_variant
mitox,HCT116-21-3-c1,ACSL5,chr10 114176722 A|G: MODERATE: missense_variant
mitox,HCT116-21-3-c1,AGPAT5,chr8 6617153 TA|T: MODIFIER: 3_prime_UTR_variant
mitox,HCT116-21-3-c1,AK4,chr1 65696034 G|C: MODIFIER: 3_prime_UTR_variant
mitox,HCT116-21-3-c1,ALDH18A1,chr10 97416404 T|C: MODIFIER: 5_prime_UTR_variant
mitox,HCT116-21-3-c1,ALDOA,chr16 30081650 T|C: MODIFIER: 3_prime_UTR_variant
mitox,HCT116-21-3-c1,BNIP3L,chr8 26268445 CA|C: MODIFIER: 3_prime_UTR_variant
mitox,HCT116-21-3-c1,CASP7,chr10 115489589 T|C: MODIFIER: 3_prime_UTR_variant
mitox,HCT116-21-3-c1,CHCHD10,chr22 24108412 G|A: LOW: synonymous_variant
mitox,HCT116-21-3-c1,CLYBL,chr13 100518580 A|G: MODERATE: missense_variant
mitox,HCT116-21-3-c1,COQ6,chr14 74428445 G|A: MODERATE: missense_variant
mitox,HCT116-21-3-c1,COX20,chr1 245006586 AT|A: MODIFIER: 3_prime_UTR_variant
mitox,HCT116-21-3-c1,CPT1B,chr22 51009953 C|T: MODERATE: missense_variant
mitox,HCT116-21-3-c1,CRAT,chr9 131857630 C|T: MODIFIER: 3_prime_UTR_variant
mitox,HCT116-21-3-c1,CYB5R3,chr22 43015216 G|A: MODIFIER: 3_prime_UTR_variant
mitox,HCT116-21-3-c1,DAP3,chr1 155658940 T|G: MODIFIER: 5_prime_UTR_variant
mitox,HCT116-21-3-c1,DHTKD1,chr10 12143105 C|G: MODERATE: missense_variant
mitox,HCT116-21-3-c1,DLST,chr14 75349301 G|A: MODERATE: missense_variant
mitox,HCT116-21-3-c1,DTYMK,chr2 242611167 C|G: MODIFIER: downstream_gene_variant
mitox,HCT116-21-3-c1,DUT,chr15 48634319 TA|T: MODIFIER: 3_prime_UTR_variant
mitox,HCT116-21-3-c1,EARS2,chr16 23533789 GTT|G: MODIFIER: 3_prime_UTR_variant
mitox,HCT116-21-3-c1,ECHDC1,chr6 127610234 GA|G: MODIFIER: 3_prime_UTR_variant
mitox,HCT116-21-3-c1,ECHDC3,chr10 11797467 G|A: MODERATE: missense_variant
mitox,HCT116-21-3-c1,FASTKD1,chr2 170403030 T|C: MODERATE: missense_variant
mitox,HCT116-21-3-c1,GDAP1,chr8 75274141 T|G: LOW: synonymous_variant
mitox,HCT116-21-3-c1,GFM2,chr5 74055209 T|C: MODERATE: missense_variant
mitox,HCT116-21-3-c1,GLRX5,chr14 95999820 T|C: MODIFIER: upstream_gene_variant
mitox,HCT116-21-3-c1,GLS,chr2 191797718 CT|C: MODIFIER: 3_prime_UTR_variant
mitox,HCT116-21-3-c1,GRPEL2,chr5 148731218 G|A: MODIFIER: 3_prime_UTR_variant
mitox,HCT116-21-3-c1,HIBCH,chr2 191069476 C|T: MODIFIER: 3_prime_UTR_variant
mitox,HCT116-21-3-c1,HK2,chr2 75118330 T|G: MODIFIER: 3_prime_UTR_variant
mitox,HCT116-21-3-c1,IVD,chr15 40699940 T|C: MODIFIER: intron_variant
mitox,HCT116-21-3-c1,KIAA0391,chr14 35743063 T|A: MODIFIER: 3_prime_UTR_variant
mitox,HCT116-21-3-c1,MAPK3,chr16 30125840 G|C: MODIFIER: 3_prime_UTR_variant
mitox,HCT116-21-3-c1,MCUR1,chr6 13790393 C|G: MODIFIER: 3_prime_UTR_variant
mitox,HCT116-21-3-c1,MDH2,chr7 75696188 T|G: MODIFIER: 3_prime_UTR_variant
mitox,HCT116-21-3-c1,MIEF1,chr22 39913282 T|G: MODIFIER: 3_prime_UTR_variant
mitox,HCT116-21-3-c1,MTG2,chr20 60776444 A|G: MODIFIER: 3_prime_UTR_variant
mitox,HCT116-21-3-c1,MTIF3,chr13 28009851 G|A: LOW: synonymous_variant
mitox,HCT116-21-3-c1,NARS2,chr11 78277277 A|G: LOW: synonymous_variant
mitox,HCT116-21-3-c1,NDUFV3,chr21 44330831 T|C: MODIFIER: downstream_gene_variant
mitox,HCT116-21-3-c1,NLN,chr5 65120144 T|C: MODIFIER: 3_prime_UTR_variant
mitox,HCT116-21-3-c1,OPA1,chr3 193412949 T|C: MODIFIER: 3_prime_UTR_variant
mitox,HCT116-21-3-c1,PAM16,chr16 4390930 C|T: LOW: synonymous_variant
mitox,HCT116-21-3-c1,PANK2,chr20 3870124 G|C: MODERATE: missense_variant
mitox,HCT116-21-3-c1,PCK2,chr14 24567498 A|C: MODERATE: missense_variant
mitox,HCT116-21-3-c1,PDPR,chr16 70193405 G|A: MODIFIER: 3_prime_UTR_variant
mitox,HCT116-21-3-c1,PFKL,chr21 45747111 G|A: MODIFIER: 3_prime_UTR_variant
mitox,HCT116-21-3-c1,PLD6,chr17 17104714 C|T: MODIFIER: 3_prime_UTR_variant
mitox,HCT116-21-3-c1,RPS6KB1,chr17 58024200 G|A: MODIFIER: 3_prime_UTR_variant
mitox,HCT116-21-3-c1,SAMM50,chr22 44379822 T|C: LOW: synonymous_variant
mitox,HCT116-21-3-c1,SDHAF1,chr19 36486445 G|C: MODERATE: missense_variant
mitox,HCT116-21-3-c1,SIRT5,chr6 13579828 A|C: MODIFIER: 5_prime_UTR_variant
mitox,HCT116-21-3-c1,SLC25A10,chr17 79687979 AC|A: MODIFIER: 3_prime_UTR_variant
mitox,HCT116-21-3-c1,SLC25A12,chr2 172650165 C|T: MODERATE: missense_variant
mitox,HCT116-21-3-c1,SLC25A26,chr3 66287056 G|A: MODERATE: missense_variant
mitox,HCT116-21-3-c1,SLC25A36,chr3 140695330 A|G: MODIFIER: 3_prime_UTR_variant
mitox,HCT116-21-3-c1,SLC25A38,chr3 39438644 AT|A: MODIFIER: 3_prime_UTR_variant
mitox,HCT116-21-3-c1,SLC25A43,chrX 118587003 C|T: MODERATE: missense_variant
mitox,HCT116-21-3-c1,SLC27A1,chr19 17616041 G|A: MODIFIER: 3_prime_UTR_variant
mitox,HCT116-21-3-c1,SLC2A1,chr1 43392250 C|G: MODIFIER: 3_prime_UTR_variant
mitox,HCT116-21-3-c1,SLC3A1,chr2 44547909 T|C: MODIFIER: 3_prime_UTR_variant
mitox,HCT116-21-3-c1,THG1L,chr5 157166649 G|A: MODIFIER: 3_prime_UTR_variant
mitox,HCT116-21-3-c1,TRNT1,chr3 3170792 C|T: MODERATE: missense_variant
mitox,HCT116-21-3-c1,TXNRD2,chr22 19868218 A|G: MODERATE: missense_variant
mitox,HCT116-21-3-c1,UQCC2,chr6 33659987 T|C: MODIFIER: downstream_gene_variant
mitox,HCT116-21-3-c1,WDR81,chr17 1641715 G|T: MODIFIER: 3_prime_UTR_variant
mitox,HCT116-21-3-c1,YARS2,chr12 32908237 C|A: MODERATE: missense_variant
mitox,HCT116-21-3-c3,AARS2,chr6 44268135 C|T: MODIFIER: 3_prime_UTR_variant
mitox,HCT116-21-3-c3,ACP6,chr1 147119273 G|A: LOW: synonymous_variant
mitox,HCT116-21-3-c3,AGPAT5,chr8 6617153 TA|T: MODIFIER: 3_prime_UTR_variant
mitox,HCT116-21-3-c3,AK4,chr1 65696034 G|C: MODIFIER: 3_prime_UTR_variant
mitox,HCT116-21-3-c3,ALDH4A1,chr1 19198681 GC|G: MODIFIER: 3_prime_UTR_variant
mitox,HCT116-21-3-c3,ARG2,chr14 68117931 C|T: MODIFIER: 3_prime_UTR_variant
mitox,HCT116-21-3-c3,CDS1,chr4 85570767 C|T: MODIFIER: 3_prime_UTR_variant
mitox,HCT116-21-3-c3,CHCHD10,chr22 24108412 G|A: LOW: synonymous_variant
mitox,HCT116-21-3-c3,COQ6,chr14 74428445 G|A: MODERATE: missense_variant
mitox,HCT116-21-3-c3,COX10,chr17 13980350 G|A: MODERATE: missense_variant
mitox,HCT116-21-3-c3,CPOX,chr3 98309993 C|T: MODERATE: missense_variant
mitox,HCT116-21-3-c3,CPT1B,chr22 51009953 C|T: MODERATE: missense_variant
mitox,HCT116-21-3-c3,DAP3,chr1 155658940 T|G: MODIFIER: 5_prime_UTR_variant
mitox,HCT116-21-3-c3,DLST,chr14 75349301 G|A: MODERATE: missense_variant
mitox,HCT116-21-3-c3,DTYMK,chr2 242611167 C|G: MODIFIER: downstream_gene_variant
mitox,HCT116-21-3-c3,ECHDC1,chr6 127610234 GA|G: MODIFIER: 3_prime_UTR_variant
mitox,HCT116-21-3-c3,ECHDC3,chr10 11797500 G|A: MODERATE: missense_variant
mitox,HCT116-21-3-c3,FASTKD3,chr5 7859523 A|G: MODIFIER: 3_prime_UTR_variant
mitox,HCT116-21-3-c3,GLS,chr2 191797645 CT|C: MODIFIER: 3_prime_UTR_variant
mitox,HCT116-21-3-c3,GRPEL2,chr5 148731218 G|A: MODIFIER: 3_prime_UTR_variant
mitox,HCT116-21-3-c3,HEMK1,chr3 50609624 T|G: LOW: synonymous_variant
mitox,HCT116-21-3-c3,HIBCH,chr2 191069476 C|T: MODIFIER: 3_prime_UTR_variant
mitox,HCT116-21-3-c3,IVD,chr15 40712737 T|C: MODIFIER: 3_prime_UTR_variant
mitox,HCT116-21-3-c3,KIAA0391,chr14 35743063 T|A: MODIFIER: 3_prime_UTR_variant
mitox,HCT116-21-3-c3,MAPK3,chr16 30125840 G|C: MODIFIER: 3_prime_UTR_variant
mitox,HCT116-21-3-c3,MAVS,chr20 3846843 C|T: MODIFIER: 3_prime_UTR_variant
mitox,HCT116-21-3-c3,MCUR1,chr6 13787304 T|C: MODIFIER: 3_prime_UTR_variant
mitox,HCT116-21-3-c3,MDH2,chr7 75677430 C|G: MODIFIER: 5_prime_UTR_variant
mitox,HCT116-21-3-c3,MTG2,chr20 60776444 A|G: MODIFIER: 3_prime_UTR_variant
mitox,HCT116-21-3-c3,MTIF3,chr13 28009851 G|A: LOW: synonymous_variant
mitox,HCT116-21-3-c3,NARS2,chr11 78277277 A|G: LOW: synonymous_variant
mitox,HCT116-21-3-c3,NDUFV3,chr21 44330831 T|C: MODIFIER: downstream_gene_variant
mitox,HCT116-21-3-c3,NLN,chr5 65120144 T|C: MODIFIER: 3_prime_UTR_variant
mitox,HCT116-21-3-c3,OGDHL,chr10 50943068 T|C: MODIFIER: 3_prime_UTR_variant
mitox,HCT116-21-3-c3,OMA1,chr1 58971831 G|A: LOW: synonymous_variant
mitox,HCT116-21-3-c3,OPA1,chr3 193412949 T|C: MODIFIER: 3_prime_UTR_variant
mitox,HCT116-21-3-c3,PDPR,chr16 70193405 G|A: MODIFIER: 3_prime_UTR_variant
mitox,HCT116-21-3-c3,PLD6,chr17 17105682 G|A: MODIFIER: 3_prime_UTR_variant
mitox,HCT116-21-3-c3,RHOT1,chr17 30519250 C|T: MODERATE: missense_variant
mitox,HCT116-21-3-c3,SAMM50,chr22 44379822 T|C: LOW: synonymous_variant
mitox,HCT116-21-3-c3,SDHAF1,chr19 36486445 G|C: MODERATE: missense_variant
mitox,HCT116-21-3-c3,SHC1,chr1 154938165 G|A: LOW: synonymous_variant
mitox,HCT116-21-3-c3,SIRT5,chr6 13601129 G|A: MODERATE: missense_variant
mitox,HCT116-21-3-c3,SLC25A10,chr17 79687979 AC|A: MODIFIER: 3_prime_UTR_variant
mitox,HCT116-21-3-c3,SLC25A24,chr1 108678732 T|C: MODIFIER: 3_prime_UTR_variant
mitox,HCT116-21-3-c3,SLC25A25,chr9 130870023 C|T: MODIFIER: 3_prime_UTR_variant
mitox,HCT116-21-3-c3,SLC25A36,chr3 140696772 TAA|T: MODIFIER: 3_prime_UTR_variant
mitox,HCT116-21-3-c3,SLC25A37,chr8 23425885 G|A: MODERATE: missense_variant
mitox,HCT116-21-3-c3,SLC25A38,chr3 39438644 AT|A: MODIFIER: 3_prime_UTR_variant
mitox,HCT116-21-3-c3,SLC27A1,chr19 17616041 G|A: MODIFIER: 3_prime_UTR_variant
mitox,HCT116-21-3-c3,SLC27A3,chr1 153750738 G|C: LOW: synonymous_variant
mitox,HCT116-21-3-c3,SLC2A1,chr1 43395635 C|T: LOW: synonymous_variant
mitox,HCT116-21-3-c3,THG1L,chr5 157166649 G|A: MODIFIER: 3_prime_UTR_variant
mitox,HCT116-21-3-c3,TRAK2,chr2 202264156 C|T: MODERATE: missense_variant
mitox,HCT116-21-3-c3,TRNT1,chr3 3170792 C|T: MODERATE: missense_variant
mitox,HCT116-21-3-c3,TXNRD2,chr22 19868218 A|G: MODERATE: missense_variant
mitox,HCT116-21-3-c3,UNG,chr12 109548639 GAT|G: MODIFIER: 3_prime_UTR_variant
mitox,HCT116-21-3-c3,WDR81,chr17 1639458 A|G: LOW: synonymous_variant
mitox,HCT116-21-3-c3,YARS2,chr12 32908237 C|A: MODERATE: missense_variant
mitox,HCT116-5-4,ABCB8,chr7 150732812 C|T: MODERATE: missense_variant
mitox,HCT116-5-4,ABHD10,chr3 111698018 G|A: MODERATE: missense_variant
mitox,HCT116-5-4,ACADSB,chr10 124800853 C|T: LOW: synonymous_variant
mitox,HCT116-5-4,ACSL3,chr2 223808401 A|C: MODIFIER: downstream_gene_variant
mitox,HCT116-5-4,AK4,chr1 65695930 G|A: MODIFIER: 3_prime_UTR_variant
mitox,HCT116-5-4,ALDH9A1,chr1 165652273 A|G: LOW: synonymous_variant
mitox,HCT116-5-4,BCKDHA,chr19 41928652 C|T: LOW: synonymous_variant
mitox,HCT116-5-4,BCKDK,chr16 31121438 T|A: MODERATE: missense_variant
mitox,HCT116-5-4,CARS2,chr13 111293915 T|G: MODERATE: missense_variant
mitox,HCT116-5-4,COQ9,chr16 57495026 T|C: MODIFIER: 3_prime_UTR_variant
mitox,HCT116-5-4,CPT1A,chr11 68523910 T|C: MODIFIER: 3_prime_UTR_variant
mitox,HCT116-5-4,CRAT,chr9 131857630 C|T: MODIFIER: 3_prime_UTR_variant
mitox,HCT116-5-4,CTSB,chr8 11700896 A|G: MODIFIER: 3_prime_UTR_variant
mitox,HCT116-5-4,CYB5R1,chr1 202932252 C|T: LOW: synonymous_variant
mitox,HCT116-5-4,CYC1,chr8 145151091 G|A: MODERATE: missense_variant
mitox,HCT116-5-4,DIABLO,chr12 122692820 T|C: MODIFIER: 3_prime_UTR_variant
mitox,HCT116-5-4,DLD,chr7 107560191 C|T: MODIFIER: 3_prime_UTR_variant
mitox,HCT116-5-4,DNM1L,chr12 32854366 A|C: LOW: synonymous_variant
mitox,HCT116-5-4,DUT,chr15 48634319 TA|T: MODIFIER: 3_prime_UTR_variant
mitox,HCT116-5-4,ERAL1,chr17 27187636 G|T: MODIFIER: 3_prime_UTR_variant
mitox,HCT116-5-4,ETHE1,chr19 44012106 A|G: LOW: synonymous_variant
mitox,HCT116-5-4,FAHD1,chr16 1877698 C|G: LOW: synonymous_variant
mitox,HCT116-5-4,FECH,chr18 55217696 G|A: MODIFIER: 3_prime_UTR_variant
mitox,HCT116-5-4,FKBP8,chr19 18642712 C|T: MODIFIER: 3_prime_UTR_variant
mitox,HCT116-5-4,GFM2,chr5 74021846 TACTCAA|T: MODERATE: disruptive_inframe_deleti
mitox,HCT116-5-4,GHITM,chr10 85912215 A|G: MODIFIER: 3_prime_UTR_variant
mitox,HCT116-5-4,GPD2,chr2 157406249 G|A: MODERATE: missense_variant
mitox,HCT116-5-4,GRPEL2,chr5 148733364 C|T: MODIFIER: 3_prime_UTR_variant
mitox,HCT116-5-4,HK1,chr10 71161494 TG|T: MODIFIER: 3_prime_UTR_variant
mitox,HCT116-5-4,IDH1,chr2 209101623 A|C: MODIFIER: 3_prime_UTR_variant
mitox,HCT116-5-4,IDH3B,chr20 2640188 CCTT|C: MODERATE: inframe_deletion
mitox,HCT116-5-4,IVD,chr15 40705225 C|T: LOW: synonymous_variant
mitox,HCT116-5-4,KIF5B,chr10 32300337 AT|A: MODIFIER: 3_prime_UTR_variant
mitox,HCT116-5-4,LRPPRC,chr2 44145196 A|G: MODERATE: missense_variant
mitox,HCT116-5-4,LYPLAL1,chr1 219383905 A|G: MODERATE: missense_variant
mitox,HCT116-5-4,MAPK1,chr22 22115004 C|G: MODIFIER: 3_prime_UTR_variant
mitox,HCT116-5-4,MAVS,chr20 3851951 T|C: MODIFIER: 3_prime_UTR_variant
mitox,HCT116-5-4,MMS19,chr10 99240758 G|C: MODERATE: missense_variant
mitox,HCT116-5-4,MPC2,chr1 167893759 G|A: LOW: synonymous_variant
mitox,HCT116-5-4,MRPL45,chr17 36478776 G|A: MODIFIER: 3_prime_UTR_variant
mitox,HCT116-5-4,MRPL54,chr19 3765222 C|T: LOW: synonymous_variant
mitox,HCT116-5-4,MRPS30,chr5 44809162 G|C: MODERATE: missense_variant
mitox,HCT116-5-4,MTFR1L,chr1 26159110 GT|G: MODIFIER: 3_prime_UTR_variant
mitox,HCT116-5-4,MTO1,chr6 74190448 T|C: LOW: synonymous_variant
mitox,HCT116-5-4,MUL1,chr1 20827717 G|A: LOW: synonymous_variant
mitox,HCT116-5-4,NADK2,chr5 36197729 C|T: LOW: synonymous_variant
mitox,HCT116-5-4,NUBP2,chr16 1838836 C|T: MODERATE: missense_variant
mitox,HCT116-5-4,OGDH,chr7 44748330 A|G: MODIFIER: 3_prime_UTR_variant
mitox,HCT116-5-4,OPA1,chr3 193334991 G|A: MODERATE: missense_variant
mitox,HCT116-5-4,PDHX,chr11 34991727 T|C: LOW: synonymous_variant
mitox,HCT116-5-4,PDPR,chr16 70191333 T|C: MODIFIER: 3_prime_UTR_variant
mitox,HCT116-5-4,PFKL,chr21 45746913 G|C: MODIFIER: 3_prime_UTR_variant
mitox,HCT116-5-4,PFKM,chr12 48526758 C|T: LOW: synonymous_variant
mitox,HCT116-5-4,PINK1,chr1 20977000 A|C: MODERATE: missense_variant
mitox,HCT116-5-4,PITRM1,chr10 3180227 T|C: MODERATE: missense_variant
mitox,HCT116-5-4,PRDX5,chr11 64085831 A|G: LOW: synonymous_variant
mitox,HCT116-5-4,RPUSD3,chr3 9882439 C|T: MODERATE: missense_variant
mitox,HCT116-5-4,RRM2B,chr8 103237225 C|G: MODERATE: missense_variant
mitox,HCT116-5-4,SFXN1,chr5 174937193 C|T: LOW: synonymous_variant
mitox,HCT116-5-4,SLC25A29,chr14 100772564 C|T: LOW: synonymous_variant
mitox,HCT116-5-4,SLC25A32,chr8 104413874 T|C: MODERATE: missense_variant
mitox,HCT116-5-4,SLC25A46,chr5 110097554 C|A: MODIFIER: 3_prime_UTR_variant
mitox,HCT116-5-4,SQSTM1,chr5 179264915 G|T: MODIFIER: 3_prime_UTR_variant
mitox,HCT116-5-4,TOP1MT,chr8 144392368 G|A: MODERATE: missense_variant
mitox,HCT116-5-4,TRIAP1,chr12 120882306 T|C: MODIFIER: 3_prime_UTR_variant
mitox,HCT116-5-4,UROS,chr10 127477557 G|A: LOW: synonymous_variant
mitox,HCT116-5-4,YRDC,chr1 38268918 T|C: MODIFIER: 3_prime_UTR_variant
mitox,HCT116-8-3-c3,ABCB8,chr7 150742408 G|T: MODERATE: missense_variant
mitox,HCT116-8-3-c3,ACACA,chr17 35696804 G|A: LOW: synonymous_variant
mitox,HCT116-8-3-c3,ACADSB,chr10 124800853 C|T: LOW: synonymous_variant
mitox,HCT116-8-3-c3,ACO1,chr9 32419165 C|T: MODERATE: missense_variant
mitox,HCT116-8-3-c3,ACSF3,chr16 89167395 C|T: LOW: synonymous_variant
mitox,HCT116-8-3-c3,ACSL5,chr10 114187827 T|A: MODIFIER: 3_prime_UTR_variant
mitox,HCT116-8-3-c3,ADO,chr10 64564934 C|G: MODERATE: missense_variant
mitox,HCT116-8-3-c3,AFG3L2,chr18 12351342 C|T: LOW: synonymous_variant
mitox,HCT116-8-3-c3,AGPAT5,chr8 6615754 G|A: MODIFIER: 3_prime_UTR_variant
mitox,HCT116-8-3-c3,AKAP1,chr17 55182811 CT|C: MODIFIER: 5_prime_UTR_variant
mitox,HCT116-8-3-c3,ALAS1,chr3 52238726 T|C: MODERATE: missense_variant
mitox,HCT116-8-3-c3,ALDH1B1,chr9 38395940 T|C: LOW: synonymous_variant
mitox,HCT116-8-3-c3,ALDH2,chr12 112237836 C|A: MODERATE: missense_variant
mitox,HCT116-8-3-c3,ALDH4A1,chr1 19199448 G|T: MODERATE: missense_variant
mitox,HCT116-8-3-c3,ALDH9A1,chr1 165631670 T|G: MODIFIER: 3_prime_UTR_variant
mitox,HCT116-8-3-c3,ALKBH7,chr19 6374823 G|T: MODERATE: missense_variant&splice_r
mitox,HCT116-8-3-c3,ATAD3B,chr1 1425753 T|C: MODERATE: missense_variant
mitox,HCT116-8-3-c3,BAX,chr19 49459104 A|G: MODIFIER: intron_variant
mitox,HCT116-8-3-c3,BCKDHA,chr19 41928652 C|T: LOW: synonymous_variant
mitox,HCT116-8-3-c3,BCL2L13,chr22 18209488 A|G: MODERATE: missense_variant
mitox,HCT116-8-3-c3,BNIP3L,chr8 26240646 A|G: MODIFIER: 5_prime_UTR_variant
mitox,HCT116-8-3-c3,BPHL,chr6 3123927 C|T: LOW: synonymous_variant
mitox,HCT116-8-3-c3,CARS2,chr13 111293915 T|G: MODERATE: missense_variant
mitox,HCT116-8-3-c3,CASP2,chr7 142988726 G|A: LOW: synonymous_variant
mitox,HCT116-8-3-c3,CASP7,chr10 115489152 C|G: MODERATE: missense_variant
mitox,HCT116-8-3-c3,CBR4,chr4 169911458 G|A: MODERATE: missense_variant
mitox,HCT116-8-3-c3,CDS1,chr4 85570767 C|T: MODIFIER: 3_prime_UTR_variant
mitox,HCT116-8-3-c3,CHCHD2,chr7 56174115 A|C: MODIFIER: 5_prime_UTR_variant
mitox,HCT116-8-3-c3,CHCHD5,chr2 113346512 A|C: MODIFIER: 3_prime_UTR_variant
mitox,HCT116-8-3-c3,CISD3,chr17 36890949 T|C: MODIFIER: 3_prime_UTR_variant
mitox,HCT116-8-3-c3,CMC2,chr16 81010073 C|T: MODERATE: missense_variant
mitox,HCT116-8-3-c3,COA7,chr1 53153829 G|A: HIGH: stop_gained
mitox,HCT116-8-3-c3,COASY,chr17 40716862 G|A: MODERATE: missense_variant
mitox,HCT116-8-3-c3,COQ5,chr12 120954409 C|T: MODERATE: missense_variant
mitox,HCT116-8-3-c3,COQ9,chr16 57495026 T|C: MODIFIER: 3_prime_UTR_variant
mitox,HCT116-8-3-c3,CPT1A,chr11 68523910 T|C: MODIFIER: 3_prime_UTR_variant
mitox,HCT116-8-3-c3,CPT1B,chr22 51008816 C|T: MODERATE: missense_variant
mitox,HCT116-8-3-c3,CTSB,chr8 11701096 A|C: MODIFIER: 3_prime_UTR_variant
mitox,HCT116-8-3-c3,CYB5B,chr16 69497810 C|T: MODIFIER: 3_prime_UTR_variant
mitox,HCT116-8-3-c3,D2HGDH,chr2 242690745 C|T: MODERATE: missense_variant
mitox,HCT116-8-3-c3,DAP3,chr1 155658940 T|G: MODIFIER: 5_prime_UTR_variant
mitox,HCT116-8-3-c3,DHTKD1,chr10 12149939 C|T: LOW: synonymous_variant
mitox,HCT116-8-3-c3,DLAT,chr11 111916647 G|A: MODERATE: missense_variant
mitox,HCT116-8-3-c3,DLD,chr7 107560191 C|T: MODIFIER: 3_prime_UTR_variant
mitox,HCT116-8-3-c3,DNM1L,chr12 32854366 A|C: LOW: synonymous_variant
mitox,HCT116-8-3-c3,DTYMK,chr2 242615528 TG|T: MODIFIER: 3_prime_UTR_variant
mitox,HCT116-8-3-c3,EARS2,chr16 23535680 A|C: MODIFIER: 3_prime_UTR_variant
mitox,HCT116-8-3-c3,ENO2,chr12 7032253 C|T: MODIFIER: 3_prime_UTR_variant
mitox,HCT116-8-3-c3,ERAL1,chr17 27187636 G|T: MODIFIER: 3_prime_UTR_variant
mitox,HCT116-8-3-c3,FAHD1,chr16 1877494 T|C: LOW: synonymous_variant
mitox,HCT116-8-3-c3,FASTK,chr7 150773807 A|T: MODIFIER: 3_prime_UTR_variant
mitox,HCT116-8-3-c3,FDXR,chr17 72862650 C|T: MODERATE: missense_variant
mitox,HCT116-8-3-c3,FECH,chr18 55221648 T|C: LOW: synonymous_variant
mitox,HCT116-8-3-c3,GCAT,chr22 38211281 C|G: MODERATE: missense_variant
mitox,HCT116-8-3-c3,GCLC,chr6 53363452 A|G: MODIFIER: 3_prime_UTR_variant
mitox,HCT116-8-3-c3,GDAP1,chr8 75274141 T|G: LOW: synonymous_variant
mitox,HCT116-8-3-c3,GLRX5,chr14 96010866 A|G: MODIFIER: 3_prime_UTR_variant
mitox,HCT116-8-3-c3,GLUD1,chr10 88810337 TAAAA|T: MODIFIER: 3_prime_UTR_variant
mitox,HCT116-8-3-c3,GPD2,chr2 157406249 G|A: MODERATE: missense_variant
mitox,HCT116-8-3-c3,GPI,chr19 34891482 C|G: MODIFIER: 3_prime_UTR_variant
mitox,HCT116-8-3-c3,GTPBP3,chr19 17450016 T|C: MODERATE: missense_variant
mitox,HCT116-8-3-c3,HMGCL,chr1 24134721 T|C: LOW: synonymous_variant
mitox,HCT116-8-3-c3,ITPR3,chr6 33653448 C|T: LOW: synonymous_variant
mitox,HCT116-8-3-c3,IVD,chr15 40705225 C|T: LOW: synonymous_variant
mitox,HCT116-8-3-c3,KIAA0391,chr14 35592538 C|G: LOW: synonymous_variant
mitox,HCT116-8-3-c3,KIF5B,chr10 32323708 T|C: MODERATE: missense_variant
mitox,HCT116-8-3-c3,LARS2,chr3 45589702 T|C: MODIFIER: 3_prime_UTR_variant
mitox,HCT116-8-3-c3,LETMD1,chr12 51453674 A|T: MODIFIER: 3_prime_UTR_variant
mitox,HCT116-8-3-c3,LIAS,chr4 39460328 G|A: MODIFIER: upstream_gene_variant
mitox,HCT116-8-3-c3,LRPPRC,chr2 44209477 C|T: LOW: synonymous_variant
mitox,HCT116-8-3-c3,MAPK1,chr22 22115353 G|A: MODIFIER: 3_prime_UTR_variant
mitox,HCT116-8-3-c3,MAPK3,chr16 30134375 C|T: LOW: synonymous_variant
mitox,HCT116-8-3-c3,MAVS,chr20 3850703 G|C: MODIFIER: 3_prime_UTR_variant
mitox,HCT116-8-3-c3,MCAT,chr22 43529314 G|C: MODERATE: missense_variant
mitox,HCT116-8-3-c3,ME1,chr6 83920884 A|G: MODIFIER: 3_prime_UTR_variant
mitox,HCT116-8-3-c3,ME2,chr18 48473753 G|A: MODIFIER: 3_prime_UTR_variant
mitox,HCT116-8-3-c3,MFN1,chr3 179096508 C|G: MODERATE: missense_variant
mitox,HCT116-8-3-c3,MICU1,chr10 74127374 C|T: MODIFIER: 3_prime_UTR_variant
mitox,HCT116-8-3-c3,MIPEP,chr13 24411772 T|C: MODERATE: missense_variant
mitox,HCT116-8-3-c3,MMS19,chr10 99220707 C|T: MODERATE: missense_variant
mitox,HCT116-8-3-c3,MPV17L2,chr19 18305824 C|T: LOW: synonymous_variant
mitox,HCT116-8-3-c3,MRPL35,chr2 86433240 C|T: MODERATE: missense_variant
mitox,HCT116-8-3-c3,MRPL39,chr21 26965148 G|A: LOW: synonymous_variant
mitox,HCT116-8-3-c3,MRPL44,chr2 224824617 A|G: LOW: synonymous_variant
mitox,HCT116-8-3-c3,MRPL52,chr14 23303641 A|C: MODIFIER: 3_prime_UTR_variant
mitox,HCT116-8-3-c3,MRPL55,chr1 228295502 C|T: MODERATE: missense_variant
mitox,HCT116-8-3-c3,MRPL9,chr1 151735576 T|C: MODERATE: missense_variant
mitox,HCT116-8-3-c3,MRPS16,chr10 75009107 T|A: MODIFIER: 3_prime_UTR_variant
mitox,HCT116-8-3-c3,MRPS33,chr7 140706157 G|T: MODIFIER: 3_prime_UTR_variant
mitox,HCT116-8-3-c3,MRPS6,chr21 35515117 G|A: MODIFIER: 3_prime_UTR_variant
mitox,HCT116-8-3-c3,MSRB2,chr10 23408278 C|T: LOW: synonymous_variant
mitox,HCT116-8-3-c3,MTFR1L,chr1 26150222 G|A: MODERATE: missense_variant
mitox,HCT116-8-3-c3,MTHFD1L,chr6 151413717 G|T: MODIFIER: 3_prime_UTR_variant
mitox,HCT116-8-3-c3,MTIF2,chr2 55490819 G|T: MODERATE: missense_variant
mitox,HCT116-8-3-c3,NARF,chr17 80442722 T|C: LOW: synonymous_variant
mitox,HCT116-8-3-c3,NARS2,chr11 78279790 T|G: MODERATE: missense_variant
mitox,HCT116-8-3-c3,NDUFA6,chr22 42481849 G|A: MODIFIER: 3_prime_UTR_variant
mitox,HCT116-8-3-c3,NFU1,chr2 69659126 A|T: HIGH: start_lost
mitox,HCT116-8-3-c3,NLN,chr5 65108215 A|G: LOW: synonymous_variant
mitox,HCT116-8-3-c3,NOA1,chr4 57842713 T|C: MODERATE: missense_variant
mitox,HCT116-8-3-c3,OPA1,chr3 193361168 T|A: MODERATE: missense_variant
mitox,HCT116-8-3-c3,OXR1,chr8 107284715 T|C: MODIFIER: intron_variant
mitox,HCT116-8-3-c3,PARL,chr3 183558402 C|G: MODERATE: missense_variant
mitox,HCT116-8-3-c3,PDHB,chr3 58413669 G|T: MODIFIER: 3_prime_UTR_variant
mitox,HCT116-8-3-c3,PDHX,chr11 34969112 A|G: MODERATE: missense_variant
mitox,HCT116-8-3-c3,PDK2,chr17 48187470 G|A: MODIFIER: 3_prime_UTR_variant
mitox,HCT116-8-3-c3,PDPR,chr16 70192461 CTA|C: MODIFIER: 3_prime_UTR_variant
mitox,HCT116-8-3-c3,PGAM5,chr12 133298773 A|G: MODIFIER: 3_prime_UTR_variant
mitox,HCT116-8-3-c3,PGLS,chr19 17622614 C|T: LOW: synonymous_variant
mitox,HCT116-8-3-c3,PHB,chr17 47481514 T|C: MODIFIER: 3_prime_UTR_variant
mitox,HCT116-8-3-c3,PINK1,chr1 20977365 C|G: MODIFIER: 3_prime_UTR_variant
mitox,HCT116-8-3-c3,PITRM1,chr10 3180227 T|C: MODERATE: missense_variant
mitox,HCT116-8-3-c3,PMPCA,chr9 139317979 C|T: MODIFIER: 3_prime_UTR_variant
mitox,HCT116-8-3-c3,PPA2,chr4 106317429 C|G: MODERATE: missense_variant
mitox,HCT116-8-3-c3,PTCD3,chr2 86364706 TG|T: MODIFIER: 3_prime_UTR_variant
mitox,HCT116-8-3-c3,PUS1,chr12 132423796 C|A: MODERATE: missense_variant
mitox,HCT116-8-3-c3,QDPR,chr4 17488244 G|A: MODIFIER: 3_prime_UTR_variant
mitox,HCT116-8-3-c3,RARS2,chr6 88240570 C|T: MODERATE: missense_variant
mitox,HCT116-8-3-c3,RBFA,chr18 77805856 A|C: MODERATE: missense_variant
mitox,HCT116-8-3-c3,REXO2,chr11 114320749 GT|G: MODIFIER: 3_prime_UTR_variant
mitox,HCT116-8-3-c3,RHOT2,chr16 723820 C|T: MODIFIER: 3_prime_UTR_variant
mitox,HCT116-8-3-c3,RPUSD3,chr3 9882439 C|T: MODERATE: missense_variant
mitox,HCT116-8-3-c3,RSAD1,chr17 48557326 G|A: MODERATE: missense_variant
mitox,HCT116-8-3-c3,SFXN1,chr5 174954087 A|G: MODIFIER: 3_prime_UTR_variant
mitox,HCT116-8-3-c3,SH3GLB1,chr1 87200817 C|T: MODERATE: missense_variant
mitox,HCT116-8-3-c3,SLC25A10,chr17 79687687 G|A: MODIFIER: 3_prime_UTR_variant
mitox,HCT116-8-3-c3,SLC25A13,chr7 95800820 T|C: LOW: synonymous_variant
mitox,HCT116-8-3-c3,SLC25A19,chr17 73269676 C|T: LOW: synonymous_variant
mitox,HCT116-8-3-c3,SLC25A26,chr3 66428282 C|T: MODIFIER: 3_prime_UTR_variant
mitox,HCT116-8-3-c3,SLC25A32,chr8 104411282 T|C: MODIFIER: 3_prime_UTR_variant
mitox,HCT116-8-3-c3,SLC25A36,chr3 140695478 GAA|G: MODIFIER: 3_prime_UTR_variant
mitox,HCT116-8-3-c3,SLC25A37,chr8 23423758 G|A: LOW: synonymous_variant
mitox,HCT116-8-3-c3,SOD1,chr21 33032042 G|A: MODIFIER: 5_prime_UTR_variant
mitox,HCT116-8-3-c3,SUOX,chr12 56398786 G|A: MODERATE: missense_variant
mitox,HCT116-8-3-c3,THEM4,chr1 151847180 A|G: MODIFIER: 3_prime_UTR_variant
mitox,HCT116-8-3-c3,TIMM44,chr19 7992159 C|T: LOW: synonymous_variant
mitox,HCT116-8-3-c3,TKT,chr3 53265410 C|T: MODERATE: missense_variant
mitox,HCT116-8-3-c3,TMEM177,chr2 120438523 A|G: MODERATE: missense_variant
mitox,HCT116-8-3-c3,TMEM70,chr8 74893821 A|G: MODERATE: missense_variant
mitox,HCT116-8-3-c3,TRIT1,chr1 40306865 C|T: MODIFIER: 3_prime_UTR_variant
mitox,HCT116-8-3-c3,TRMT10C,chr3 101284008 CA|C: HIGH: frameshift_variant
mitox,HCT116-8-3-c3,TXNRD2,chr22 19863156 TG|T: MODIFIER: 3_prime_UTR_variant
mitox,HCT116-8-3-c3,UQCC1,chr20 33971914 C|T: MODERATE: missense_variant
mitox,HCT116-8-3-c3,YARS2,chr12 32908518 G|A: LOW: synonymous_variant
mitox,HCT116-8-3-c4,ACACA,chr17 35696804 G|A: LOW: synonymous_variant
mitox,HCT116-8-3-c4,ACADSB,chr10 124800853 C|T: LOW: synonymous_variant
mitox,HCT116-8-3-c4,ACO1,chr9 32419165 C|T: MODERATE: missense_variant
mitox,HCT116-8-3-c4,ACOT9,chrX 23731321 T|C: MODERATE: missense_variant
mitox,HCT116-8-3-c4,ACSF3,chr16 89167140 G|C: LOW: synonymous_variant
mitox,HCT116-8-3-c4,AFG3L2,chr18 12351342 C|T: LOW: synonymous_variant
mitox,HCT116-8-3-c4,AGPAT5,chr8 6615754 G|A: MODIFIER: 3_prime_UTR_variant
mitox,HCT116-8-3-c4,AK4,chr1 65695853 A|G: MODIFIER: 3_prime_UTR_variant
mitox,HCT116-8-3-c4,AKAP1,chr17 55182811 CT|C: MODIFIER: 5_prime_UTR_variant
mitox,HCT116-8-3-c4,ALAS1,chr3 52238726 T|C: MODERATE: missense_variant
mitox,HCT116-8-3-c4,ALDH1B1,chr9 38395940 T|C: LOW: synonymous_variant
mitox,HCT116-8-3-c4,ALDH2,chr12 112237836 C|A: MODERATE: missense_variant
mitox,HCT116-8-3-c4,ALDH4A1,chr1 19199448 G|T: MODERATE: missense_variant
mitox,HCT116-8-3-c4,APOPT1,chr14 104029449 G|A: LOW: synonymous_variant
mitox,HCT116-8-3-c4,ATAD3B,chr1 1425753 T|C: MODERATE: missense_variant
mitox,HCT116-8-3-c4,BCKDHA,chr19 41928652 C|T: LOW: synonymous_variant
mitox,HCT116-8-3-c4,BCL2L13,chr22 18209488 A|G: MODERATE: missense_variant
mitox,HCT116-8-3-c4,BCL2L2,chr14 23778698 A|G: MODIFIER: 3_prime_UTR_variant
mitox,HCT116-8-3-c4,BNIP3L,chr8 26269032 C|T: MODIFIER: 3_prime_UTR_variant
mitox,HCT116-8-3-c4,C12ORF65,chr12 123738331 C|A: MODERATE: missense_variant
mitox,HCT116-8-3-c4,CARS2,chr13 111293915 T|G: MODERATE: missense_variant
mitox,HCT116-8-3-c4,CASP2,chr7 142988726 G|A: LOW: synonymous_variant
mitox,HCT116-8-3-c4,CBR4,chr4 169928842 G|T: MODERATE: missense_variant
mitox,HCT116-8-3-c4,CHCHD2,chr7 56174115 A|C: MODIFIER: 5_prime_UTR_variant
mitox,HCT116-8-3-c4,CHCHD7,chr8 57129062 T|C: HIGH: stop_lost
mitox,HCT116-8-3-c4,CISD3,chr17 36890949 T|C: MODIFIER: 3_prime_UTR_variant
mitox,HCT116-8-3-c4,CLPB,chr11 72013369 G|A: LOW: synonymous_variant
mitox,HCT116-8-3-c4,CMC2,chr16 81010073 C|T: MODERATE: missense_variant
mitox,HCT116-8-3-c4,COASY,chr17 40716862 G|A: MODERATE: missense_variant
mitox,HCT116-8-3-c4,COQ5,chr12 120941444 T|C: MODIFIER: 3_prime_UTR_variant
mitox,HCT116-8-3-c4,COQ9,chr16 57495026 T|C: MODIFIER: 3_prime_UTR_variant
mitox,HCT116-8-3-c4,CPT1A,chr11 68523910 T|C: MODIFIER: 3_prime_UTR_variant
mitox,HCT116-8-3-c4,CTSB,chr8 11701096 A|C: MODIFIER: 3_prime_UTR_variant
mitox,HCT116-8-3-c4,CYB5B,chr16 69497810 C|T: MODIFIER: 3_prime_UTR_variant
mitox,HCT116-8-3-c4,DHTKD1,chr10 12149939 C|T: LOW: synonymous_variant
mitox,HCT116-8-3-c4,DLAT,chr11 111916647 G|A: MODERATE: missense_variant
mitox,HCT116-8-3-c4,DLD,chr7 107560191 C|T: MODIFIER: 3_prime_UTR_variant
mitox,HCT116-8-3-c4,DNM1L,chr12 32854366 A|C: LOW: synonymous_variant
mitox,HCT116-8-3-c4,EARS2,chr16 23535680 A|C: MODIFIER: 3_prime_UTR_variant
mitox,HCT116-8-3-c4,ENO2,chr12 7032253 C|T: MODIFIER: 3_prime_UTR_variant
mitox,HCT116-8-3-c4,ERAL1,chr17 27187636 G|T: MODIFIER: 3_prime_UTR_variant
mitox,HCT116-8-3-c4,FAHD1,chr16 1877913 C|G: MODIFIER: 3_prime_UTR_variant
mitox,HCT116-8-3-c4,FDXR,chr17 72862650 C|T: MODERATE: missense_variant
mitox,HCT116-8-3-c4,FECH,chr18 55221648 T|C: LOW: synonymous_variant
mitox,HCT116-8-3-c4,FXN,chr9 71687924 C|T: MODIFIER: 3_prime_UTR_variant
mitox,HCT116-8-3-c4,GATC,chr12 120901045 G|A: MODIFIER: 3_prime_UTR_variant
mitox,HCT116-8-3-c4,GCAT,chr22 38211281 C|G: MODERATE: missense_variant
mitox,HCT116-8-3-c4,GCLC,chr6 53363452 A|G: MODIFIER: 3_prime_UTR_variant
mitox,HCT116-8-3-c4,GFER,chr16 2035868 C|T: LOW: splice_region_variant&syn
mitox,HCT116-8-3-c4,GFM2,chr5 74046464 C|T: LOW: synonymous_variant
mitox,HCT116-8-3-c4,GLRX5,chr14 96010866 A|G: MODIFIER: 3_prime_UTR_variant
mitox,HCT116-8-3-c4,GPD2,chr2 157406249 G|A: MODERATE: missense_variant
mitox,HCT116-8-3-c4,GPI,chr19 34891482 C|G: MODIFIER: 3_prime_UTR_variant
mitox,HCT116-8-3-c4,GRPEL2,chr5 148733364 C|T: MODIFIER: 3_prime_UTR_variant
mitox,HCT116-8-3-c4,GTPBP3,chr19 17450016 T|C: MODERATE: missense_variant
mitox,HCT116-8-3-c4,HMGCL,chr1 24134721 T|C: LOW: synonymous_variant
mitox,HCT116-8-3-c4,ITPR3,chr6 33653448 C|T: LOW: synonymous_variant
mitox,HCT116-8-3-c4,IVD,chr15 40705225 C|T: LOW: synonymous_variant
mitox,HCT116-8-3-c4,KIF5B,chr10 32323708 T|C: MODERATE: missense_variant
mitox,HCT116-8-3-c4,LARS2,chr3 45559519 T|C: LOW: synonymous_variant
mitox,HCT116-8-3-c4,LETM1,chr4 1815990 G|A: MODIFIER: 3_prime_UTR_variant
mitox,HCT116-8-3-c4,LETMD1,chr12 51453366 A|C: MODIFIER: 3_prime_UTR_variant
mitox,HCT116-8-3-c4,LIAS,chr4 39460328 G|A: MODIFIER: upstream_gene_variant
mitox,HCT116-8-3-c4,LRPPRC,chr2 44209477 C|T: LOW: synonymous_variant
mitox,HCT116-8-3-c4,LYRM4,chr6 5260936 A|C: MODERATE: missense_variant
mitox,HCT116-8-3-c4,MAPK1,chr22 22115353 G|A: MODIFIER: 3_prime_UTR_variant
mitox,HCT116-8-3-c4,MAVS,chr20 3850703 G|C: MODIFIER: 3_prime_UTR_variant
mitox,HCT116-8-3-c4,MCAT,chr22 43529314 G|C: MODERATE: missense_variant
mitox,HCT116-8-3-c4,MCCC2,chr5 70953261 AT|A: MODIFIER: 3_prime_UTR_variant
mitox,HCT116-8-3-c4,ME1,chr6 83920884 A|G: MODIFIER: 3_prime_UTR_variant
mitox,HCT116-8-3-c4,ME2,chr18 48473753 G|A: MODIFIER: 3_prime_UTR_variant
mitox,HCT116-8-3-c4,MFN1,chr3 179096508 C|G: MODERATE: missense_variant
mitox,HCT116-8-3-c4,MFN2,chr1 12073251 GA|G: MODIFIER: 3_prime_UTR_variant
mitox,HCT116-8-3-c4,MICU1,chr10 74127374 C|T: MODIFIER: 3_prime_UTR_variant
mitox,HCT116-8-3-c4,MIPEP,chr13 24411772 T|C: MODERATE: missense_variant
mitox,HCT116-8-3-c4,MMS19,chr10 99220707 C|T: MODERATE: missense_variant
mitox,HCT116-8-3-c4,MPV17L2,chr19 18304700 A|G: MODERATE: missense_variant
mitox,HCT116-8-3-c4,MRPL19,chr2 75874241 G|A: LOW: synonymous_variant
mitox,HCT116-8-3-c4,MRPL39,chr21 26965205 T|C: LOW: synonymous_variant
mitox,HCT116-8-3-c4,MRPL44,chr2 224824617 A|G: LOW: synonymous_variant
mitox,HCT116-8-3-c4,MRPL52,chr14 23303641 A|C: MODIFIER: 3_prime_UTR_variant
mitox,HCT116-8-3-c4,MRPL55,chr1 228295502 C|T: MODERATE: missense_variant
mitox,HCT116-8-3-c4,MRPL9,chr1 151735576 T|C: MODERATE: missense_variant
mitox,HCT116-8-3-c4,MRPS16,chr10 75009107 T|A: MODIFIER: 3_prime_UTR_variant
mitox,HCT116-8-3-c4,MRPS33,chr7 140706031 G|A: MODIFIER: 3_prime_UTR_variant
mitox,HCT116-8-3-c4,MRPS6,chr21 35515117 G|A: MODIFIER: 3_prime_UTR_variant
mitox,HCT116-8-3-c4,MSRB2,chr10 23408278 C|T: LOW: synonymous_variant
mitox,HCT116-8-3-c4,MTFR1L,chr1 26150222 G|A: MODERATE: missense_variant
mitox,HCT116-8-3-c4,MTHFD1L,chr6 151413717 G|T: MODIFIER: 3_prime_UTR_variant
mitox,HCT116-8-3-c4,MTIF2,chr2 55490819 G|T: MODERATE: missense_variant
mitox,HCT116-8-3-c4,NARF,chr17 80442722 T|C: LOW: synonymous_variant
mitox,HCT116-8-3-c4,NDUFA6,chr22 42481849 G|A: MODIFIER: 3_prime_UTR_variant
mitox,HCT116-8-3-c4,NLN,chr5 65108215 A|G: LOW: synonymous_variant
mitox,HCT116-8-3-c4,NOA1,chr4 57842713 T|C: MODERATE: missense_variant
mitox,HCT116-8-3-c4,OPA1,chr3 193361168 T|A: MODERATE: missense_variant
mitox,HCT116-8-3-c4,PARL,chr3 183558402 C|G: MODERATE: missense_variant
mitox,HCT116-8-3-c4,PDHB,chr3 58413669 G|T: MODIFIER: 3_prime_UTR_variant
mitox,HCT116-8-3-c4,PDHX,chr11 34969112 A|G: MODERATE: missense_variant
mitox,HCT116-8-3-c4,PDK2,chr17 48174908 C|T: LOW: synonymous_variant
mitox,HCT116-8-3-c4,PDPR,chr16 70192461 CTA|C: MODIFIER: 3_prime_UTR_variant
mitox,HCT116-8-3-c4,PGAM5,chr12 133298773 A|G: MODIFIER: 3_prime_UTR_variant
mitox,HCT116-8-3-c4,PGLS,chr19 17622614 C|T: LOW: synonymous_variant
mitox,HCT116-8-3-c4,PHB,chr17 47481514 T|C: MODIFIER: 3_prime_UTR_variant
mitox,HCT116-8-3-c4,PINK1,chr1 20977365 C|G: MODIFIER: 3_prime_UTR_variant
mitox,HCT116-8-3-c4,PITRM1,chr10 3180227 T|C: MODERATE: missense_variant
mitox,HCT116-8-3-c4,PPA2,chr4 106317429 C|G: MODERATE: missense_variant
mitox,HCT116-8-3-c4,PTCD3,chr2 86364706 TG|T: MODIFIER: 3_prime_UTR_variant
mitox,HCT116-8-3-c4,PUS1,chr12 132423796 C|A: MODERATE: missense_variant
mitox,HCT116-8-3-c4,QDPR,chr4 17488256 C|T: MODIFIER: 3_prime_UTR_variant
mitox,HCT116-8-3-c4,RARS2,chr6 88240570 C|T: MODERATE: missense_variant
mitox,HCT116-8-3-c4,RBFA,chr18 77805856 A|C: MODERATE: missense_variant
mitox,HCT116-8-3-c4,RHOT2,chr16 723725 G|T: MODIFIER: 3_prime_UTR_variant
mitox,HCT116-8-3-c4,RPUSD3,chr3 9882439 C|T: MODERATE: missense_variant
mitox,HCT116-8-3-c4,RSAD1,chr17 48557326 G|A: MODERATE: missense_variant
mitox,HCT116-8-3-c4,SCO1,chr17 10583834 GT|G: MODIFIER: 3_prime_UTR_variant
mitox,HCT116-8-3-c4,SFXN1,chr5 174954087 A|G: MODIFIER: 3_prime_UTR_variant
mitox,HCT116-8-3-c4,SFXN4,chr10 120919246 T|C: LOW: synonymous_variant
mitox,HCT116-8-3-c4,SH3GLB1,chr1 87200817 C|T: MODERATE: missense_variant
mitox,HCT116-8-3-c4,SLC25A10,chr17 79687687 G|A: MODIFIER: 3_prime_UTR_variant
mitox,HCT116-8-3-c4,SLC25A13,chr7 95800820 T|C: LOW: synonymous_variant
mitox,HCT116-8-3-c4,SLC25A22,chr11 790806 AG|A: MODIFIER: 3_prime_UTR_variant
mitox,HCT116-8-3-c4,SLC25A24,chr1 108728484 T|C: LOW: synonymous_variant
mitox,HCT116-8-3-c4,SLC25A26,chr3 66419942 A|G: LOW: synonymous_variant
mitox,HCT116-8-3-c4,SLC25A30,chr13 45975241 T|G: LOW: synonymous_variant
mitox,HCT116-8-3-c4,SLC25A32,chr8 104411282 T|C: MODIFIER: 3_prime_UTR_variant
mitox,HCT116-8-3-c4,SLC25A36,chr3 140695478 GAA|G: MODIFIER: 3_prime_UTR_variant
mitox,HCT116-8-3-c4,SLC25A37,chr8 23423758 G|A: LOW: synonymous_variant
mitox,HCT116-8-3-c4,SOD1,chr21 33032042 G|A: MODIFIER: 5_prime_UTR_variant
mitox,HCT116-8-3-c4,SUOX,chr12 56398786 G|A: MODERATE: missense_variant
mitox,HCT116-8-3-c4,THEM4,chr1 151847180 A|G: MODIFIER: 3_prime_UTR_variant
mitox,HCT116-8-3-c4,TIMM44,chr19 7992159 C|T: LOW: synonymous_variant
mitox,HCT116-8-3-c4,TMEM177,chr2 120438523 A|G: MODERATE: missense_variant
mitox,HCT116-8-3-c4,TMEM70,chr8 74893821 A|G: MODERATE: missense_variant
mitox,HCT116-8-3-c4,TRIT1,chr1 40306865 C|T: MODIFIER: 3_prime_UTR_variant
mitox,HCT116-8-3-c4,TRMT5,chr14 61445967 A|G: MODERATE: missense_variant
mitox,HCT116-8-3-c4,TXNRD2,chr22 19863156 TG|T: MODIFIER: 3_prime_UTR_variant
mitox,HCT116-8-3-c4,UQCC1,chr20 33971914 C|T: MODERATE: missense_variant
mitox,HCT116-8-3-c4,YARS2,chr12 32908518 G|A: LOW: synonymous_variant
mitox,HCT116-8-3-c4,YRDC,chr1 38268918 T|C: MODIFIER: 3_prime_UTR_variant
mitox,RPE-21-3-c1,AFG3L2,chr18 12351342 C|T: LOW: synonymous_variant
mitox,RPE-21-3-c1,C12ORF10,chr12 53700860 A|G: MODERATE: missense_variant
mitox,RPE-21-3-c1,MRPL10,chr17 45901378 G|A: MODIFIER: 3_prime_UTR_variant
mitox,RPE-21-3-c1,MRPL39,chr21 26965148 G|A: LOW: synonymous_variant
mitox,RPE-21-3-c1,MRPL52,chr14 23303641 A|C: MODIFIER: 3_prime_UTR_variant
mitox,RPE-21-3-c1,MRPS9,chr2 105716266 A|G: MODIFIER: 3_prime_UTR_variant
mitox,RPE-21-3-c1,OGDH,chr7 44747903 T|C: MODIFIER: 3_prime_UTR_variant
mitox,RPE-21-3-c1,PDPR,chr16 70196186 T|G: MODIFIER: downstream_gene_variant
mitox,RPE-21-3-c1,PMAIP1,chr18 57570333 G|T: MODIFIER: 3_prime_UTR_variant
mitox,RPE-21-3-c1,RRM2B,chr8 103219240 A|G: MODIFIER: 3_prime_UTR_variant
mitox,RPE-21-3-c1,TOMM34,chr20 43571011 T|G: MODIFIER: 3_prime_UTR_variant
mitox,RPE-21-3-c2,DTYMK,chr2 242630048 G|A: MODIFIER: upstream_gene_variant
mitox,RPE-21-3-c2,GARS,chr7 30673512 TA|T: MODIFIER: 3_prime_UTR_variant
mitox,RPE-21-3-c2,HSDL1,chr16 84156280 C|G: MODIFIER: 3_prime_UTR_variant
mitox,RPE-21-3-c2,MSRA,chr8 10285825 T|G: MODIFIER: 3_prime_UTR_variant
mitox,RPE-21-3-c2,PCK2,chr14 24572932 G|A: MODERATE: missense_variant
mitox,RPE-21-3-c2,PDPR,chr16 70195382 G|A: MODIFIER: downstream_gene_variant
mitox,RPE1-5-3-12-3,HSPA9,chr5 137892170 G|A: SNP: Silent
