sampleID	age_group	gender	race
101_19yr_F_Caucasian	10 - 20	F	Caucasian
102_19yr_M_Caucasian	10 - 20	M	Caucasian
103_19yr_M_Caucasian	10 - 20	M	Caucasian
104_19yr_M_Caucasian	10 - 20	M	Caucasian
105_20yr_M_Caucasian	10 - 20	M	Caucasian
106_20yr_F_Caucasian	10 - 20	F	Caucasian
107_31yr_F_Caucasian	30 - 40	F	Caucasian
108_31_F_Caucasian	30 - 40	F	Caucasian
109_32_M_Unknown	30 - 40	M	Unknown
110_32_F_BlackPuertoRican	30 - 40	F	Black
111_33yr_M_Caucasian	30 - 40	M	Caucasian
112_33yr_M_Caucasian	30 - 40	M	Caucasian
114_37yr_F_Unknown	30 - 40	F	Unknown
115_37yr_F_Unknown	30 - 40	F	Unknown
117_37yr_M_Caucasian	30 - 40	M	Caucasian
118_39yr_M_Caucasian	30 - 40	M	Caucasian
120_51yr_M_Caucasian	50 - 60	M	Caucasian
121_52yr_M_Caucasian	50 - 60	M	Caucasian
122_55yr_M_Caucasian	50 - 60	M	Caucasian
123_57_M_Caucasian	50 - 60	M	Caucasian
124_60yr_M_Caucasian	50 - 60	M	Caucasian
125_71yr_F_Caucasian	70 - 80	F	Caucasian
126_75_M_Caucasian	70 - 80	M	Caucasian
127_78yr_M_Caucasian	70 - 80	M	Caucasian
128_80yr_F_Caucasian	70 - 80	F	Caucasian
129_94_M_Caucasian	90 - 100	M	Caucasian
130_89_M_Caucasian	80 - 90	M	Caucasian
131_87_M_Caucasian	80 - 90	M	Caucasian
132_90_M_Caucasian	80 - 90	M	Caucasian
133_89_M_Caucasian	80 - 90	M	Caucasian
134_86_M_Caucasian	80 - 90	M	Caucasian
135_92_M_Caucasian	90 - 100	M	Caucasian
136_87_M_Caucasian	80 - 90	M	Caucasian
14_1yr_M_Asian	1 - 10	M	Asian
155_22yr_M_Caucasian	20 - 30	M	Caucasian
156_25yr_F_Caucasian	20 - 30	F	Caucasian
157_29yr_M_Unknown	20 - 30	M	Unknown
158_24YR_M_Caucasian	20 - 30	M	Caucasian
159_23YR_M_AmericanIndian	20 - 30	M	American_Indian
15_12yr_M_Caucasian	10 - 20	M	Caucasian
160_26yr_F_Asian	20 - 30	F	Asian
162_21YR_M_Caucasian	20 - 30	M	Caucasian
163_67YR_F_Black	60 - 70	F	Black
164_67YR_F_Filipino	60 - 70	F	Filipino
165_68YR_M_Unknown	60 - 70	M	Unknown
166_82yr_F_Caucasian	80 - 90	F	Caucasian
167_66yr_M_Black	60 - 70	M	Black
168_68YR_M_Caucasian	60 - 70	M	Caucasian
169_70yr_M_Caucasian	70 - 80	M	Caucasian
16_24YR_F_Caucasian	20 - 30	F	Caucasian
170_69yr_M_Caucasian	60 - 70	M	Caucasian
17_25YR_M_caucasian	20 - 30	M	Caucasian
18_25YR_F_caucasian	20 - 30	F	Caucasian
197_2yr3mos_F_Unknown	1 - 10	F	Unknown
198_3yr9mos_F_Unknown	1 - 10	F	Unknown
199_4yr8mos_F_Unknown	1 - 10	F	Unknown
19_26YR_M_Caucasian	20 - 30	M	Caucasian
200_8yr6mos_M_Unknown	1 - 10	M	Unknown
201_6ys11mos_F_Unknown	1 - 10	F	Unknown
202_5yr0mos_F_Unknown	1 - 10	F	Unknown
203_8yr10mos_M_Unknown	1 - 10	M	Unknown
204_3yr0mos_F_Unknown	1 - 10	F	Unknown
20_26YR_F_Caucasian	20 - 30	F	Caucasian
21_28YR_M_Caucasian	20 - 30	M	Caucasian
22_29YR_M_Caucasian	20 - 30	M	Caucasian
23_29YR_M_Caucasian	20 - 30	M	Caucasian
24_30YR_M_Caucasian	30 - 40	M	Caucasian
25_30YR_F_Caucasian	30 - 40	F	Caucasian
26_30YR_M_Caucasian	30 - 40	M	Caucasian
27_30YR_M_Caucasian	30 - 40	M	Caucasian
28_43yr_F_Caucasian	40 - 50	F	Caucasian
29_44yr_M_Caucasian	40 - 50	M	Caucasian
30_41yr_M_Caucasian	40 - 50	M	Caucasian
31_47yr_M_Caucasian	40 - 50	M	Caucasian
32_50yr_F_Caucasian	50 - 60	F	Caucasian
33_46yr_M_Caucasian	40 - 50	M	Caucasian
34_50yr_M_Caucasian	50 - 60	M	Caucasian
35_42yr_F_Caucasian	40 - 50	F	Caucasian
36_47yr_M_Caucasian	40 - 50	M	Caucasian
37_41yr_F_Caucasian	40 - 50	F	Caucasian
38_43yr_M_Caucasian	40 - 50	M	Caucasian
39_44yr_M_Caucasian	40 - 50	M	Caucasian
40_45yr_M_Caucasian	40 - 50	M	Caucasian
41_46yr_M_Caucasian	40 - 50	M	Caucasian
42_46yr_M_Caucasian	40 - 50	M	Caucasian
43_47yr_M_Caucasian	40 - 50	M	Caucasian
44_61YR_M_Caucasian	60 - 70	M	Caucasian
45_62YR_F_Caucasian	60 - 70	F	Caucasian
46_62YR_F_Caucasian	60 - 70	F	Caucasian
47_63YR_M_Caucasian	60 - 70	M	Caucasian
48_64YR_M_Caucasian	60 - 70	M	Caucasian
49_66YR_M_Caucasian	60 - 70	M	Caucasian
50_67YR_M_Caucasian	60 - 70	M	Caucasian
51_67YR_M_Caucasian	60 - 70	M	Caucasian
52_68YR_M_Caucasian	60 - 70	M	Caucasian
53_68YR_M_Caucasian	60 - 70	M	Caucasian
54_69YR_M_Caucasian	60 - 70	M	Caucasian
55_69YR_F_Caucasian	60 - 70	F	Caucasian
56_83_M_Caucasian	80 - 90	M	Caucasian
57_83_M_Caucasian	80 - 90	M	Caucasian
58_83_M_Caucasian	80 - 90	M	Caucasian
59_84_F_Caucasian	80 - 90	F	Caucasian
60_84_M_Caucasian	80 - 90	M	Caucasian
61_84_F_Caucasian	80 - 90	F	Caucasian
62_84_M_Caucasian	80 - 90	M	Caucasian
63_84_M_Caucasian	80 - 90	M	Caucasian
64_84_M_Caucasian	80 - 90	M	Caucasian
65_84_M_Caucasian	80 - 90	M	Caucasian
66_86_M_CaucasianSardinian	80 - 90	M	Caucasian
67_86_M_caucasian	80 - 90	M	Caucasian
68_86_M_caucasian	80 - 90	M	Caucasian
69_87_F_caucasian	80 - 90	F	Caucasian
70_87_M_caucasian	80 - 90	M	Caucasian
71_87_M_caucasian	80 - 90	M	Caucasian
72_87_M_Black	80 - 90	M	Black
73_88_M_Caucasian	80 - 90	M	Caucasian
74_89_M_Caucasian	80 - 90	M	Caucasian
75_90_M_Caucasian	90 - 100	M	Caucasian
76_91_M_Caucasian	90 - 100	M	Caucasian
77_92_F_Caucasian	90 - 100	F	Caucasian
78_96_M_Caucasian	90 - 100	M	Caucasian
79_1_M_Caucasian	1 - 10	M	Caucasian
80_2_F_Caucasian	1 - 10	F	Caucasian
81_3_M_LatinoHispanic	1 - 10	M	Hispanic
82_3_M_Unknown	1 - 10	M	Unknown
83_5yr_M_Black	1 - 10	M	Black
84_6yr_M_Black	1 - 10	M	Black
85_7yr_M_Black	1 - 10	M	Black
86_7yr_M_Caucasian	1 - 10	M	Caucasian
87_8yr_M_Caucasian	1 - 10	M	Caucasian
88_8yr_M_Caucasian	1 - 10	M	Caucasian
89_9yr_F_Black	1 - 10	F	Black
90_10yr_M_Black	10 - 20	M	Black
91_10yr_M_Caucasian	10 - 20	M	Caucasian
92_11_F_Caucasian	10 - 20	F	Caucasian
93_11_F_Caucasian	10 - 20	F	Caucasian
94_12_M_Caucasian	10 - 20	M	Caucasian
95_13yr_M_WhiTEEASTINDIAN	10 - 20	M	WhiteEastIndian
97_16yr_F_Unknown	10 - 20	F	Unknown
98_17yr_M_Caucasian	10 - 20	M	Caucasian
99_17yr_M_Caucasian	10 - 20	M	Caucasian